<mxfile host="app.diagrams.net" modified="2021-08-09T03:49:53.618Z" agent="5.0 (Windows NT 10.0; Win64; x64) AppleWebKit/537.36 (KHTML, like Gecko) Chrome/91.0.4472.164 Safari/537.36" etag="5eVAZYBZqz14QBzjB0Xm" version="14.9.3" type="gitlab">
  <diagram id="TBuMU3xNWCHlhk1uhZuq" name="Page-1">
    <mxGraphModel dx="3076" dy="1874" grid="1" gridSize="10" guides="1" tooltips="1" connect="1" arrows="1" fold="1" page="1" pageScale="1" pageWidth="827" pageHeight="1169" math="0" shadow="0">
      <root>
        <mxCell id="0" />
        <mxCell id="1" parent="0" />
        <mxCell id="wLkOxcurCiOIAry3g33d-14" value="" style="edgeStyle=orthogonalEdgeStyle;curved=1;rounded=0;orthogonalLoop=1;jettySize=auto;html=1;" edge="1" parent="1" source="wLkOxcurCiOIAry3g33d-1" target="wLkOxcurCiOIAry3g33d-13">
          <mxGeometry relative="1" as="geometry" />
        </mxCell>
        <mxCell id="wLkOxcurCiOIAry3g33d-15" style="edgeStyle=orthogonalEdgeStyle;curved=1;rounded=0;orthogonalLoop=1;jettySize=auto;html=1;entryX=0;entryY=0.5;entryDx=0;entryDy=0;" edge="1" parent="1" source="wLkOxcurCiOIAry3g33d-1" target="wLkOxcurCiOIAry3g33d-11">
          <mxGeometry relative="1" as="geometry" />
        </mxCell>
        <mxCell id="wLkOxcurCiOIAry3g33d-41" style="edgeStyle=orthogonalEdgeStyle;curved=1;rounded=0;orthogonalLoop=1;jettySize=auto;html=1;entryX=0;entryY=0.5;entryDx=0;entryDy=0;" edge="1" parent="1" source="wLkOxcurCiOIAry3g33d-1" target="wLkOxcurCiOIAry3g33d-40">
          <mxGeometry relative="1" as="geometry">
            <Array as="points">
              <mxPoint x="335" y="760" />
              <mxPoint x="335" y="585" />
            </Array>
          </mxGeometry>
        </mxCell>
        <mxCell id="wLkOxcurCiOIAry3g33d-1" value="measure" style="ellipse;whiteSpace=wrap;html=1;fillColor=#f8cecc;strokeColor=#b85450;" vertex="1" parent="1">
          <mxGeometry x="180" y="720" width="120" height="80" as="geometry" />
        </mxCell>
        <mxCell id="wLkOxcurCiOIAry3g33d-4" style="edgeStyle=orthogonalEdgeStyle;rounded=0;orthogonalLoop=1;jettySize=auto;html=1;curved=1;" edge="1" parent="1" source="wLkOxcurCiOIAry3g33d-2" target="wLkOxcurCiOIAry3g33d-3">
          <mxGeometry relative="1" as="geometry" />
        </mxCell>
        <mxCell id="wLkOxcurCiOIAry3g33d-5" style="edgeStyle=orthogonalEdgeStyle;rounded=0;orthogonalLoop=1;jettySize=auto;html=1;curved=1;" edge="1" parent="1" source="wLkOxcurCiOIAry3g33d-2" target="wLkOxcurCiOIAry3g33d-1">
          <mxGeometry relative="1" as="geometry">
            <mxPoint x="240" y="630" as="sourcePoint" />
          </mxGeometry>
        </mxCell>
        <mxCell id="wLkOxcurCiOIAry3g33d-76" style="edgeStyle=orthogonalEdgeStyle;curved=1;rounded=0;orthogonalLoop=1;jettySize=auto;html=1;entryX=0.875;entryY=0.5;entryDx=0;entryDy=0;entryPerimeter=0;" edge="1" parent="1" source="wLkOxcurCiOIAry3g33d-2" target="wLkOxcurCiOIAry3g33d-82">
          <mxGeometry relative="1" as="geometry" />
        </mxCell>
        <mxCell id="wLkOxcurCiOIAry3g33d-80" value="提交spark任务" style="edgeLabel;html=1;align=center;verticalAlign=middle;resizable=0;points=[];" vertex="1" connectable="0" parent="wLkOxcurCiOIAry3g33d-76">
          <mxGeometry x="-0.1841" y="-1" relative="1" as="geometry">
            <mxPoint as="offset" />
          </mxGeometry>
        </mxCell>
        <mxCell id="wLkOxcurCiOIAry3g33d-2" value="job" style="ellipse;whiteSpace=wrap;html=1;fillColor=#f8cecc;strokeColor=#b85450;" vertex="1" parent="1">
          <mxGeometry x="180" y="330" width="120" height="80" as="geometry" />
        </mxCell>
        <mxCell id="wLkOxcurCiOIAry3g33d-3" value="alarm" style="ellipse;whiteSpace=wrap;html=1;fillColor=#f8cecc;strokeColor=#b85450;" vertex="1" parent="1">
          <mxGeometry x="180" y="160" width="120" height="80" as="geometry" />
        </mxCell>
        <mxCell id="wLkOxcurCiOIAry3g33d-19" value="" style="edgeStyle=orthogonalEdgeStyle;curved=1;rounded=0;orthogonalLoop=1;jettySize=auto;html=1;" edge="1" parent="1" source="wLkOxcurCiOIAry3g33d-11" target="wLkOxcurCiOIAry3g33d-18">
          <mxGeometry relative="1" as="geometry" />
        </mxCell>
        <mxCell id="wLkOxcurCiOIAry3g33d-27" style="edgeStyle=orthogonalEdgeStyle;curved=1;rounded=0;orthogonalLoop=1;jettySize=auto;html=1;entryX=-0.033;entryY=0.633;entryDx=0;entryDy=0;entryPerimeter=0;" edge="1" parent="1" source="wLkOxcurCiOIAry3g33d-11" target="wLkOxcurCiOIAry3g33d-26">
          <mxGeometry relative="1" as="geometry" />
        </mxCell>
        <mxCell id="wLkOxcurCiOIAry3g33d-11" value="单数据源" style="whiteSpace=wrap;html=1;" vertex="1" parent="1">
          <mxGeometry x="370" y="840" width="120" height="60" as="geometry" />
        </mxCell>
        <mxCell id="wLkOxcurCiOIAry3g33d-17" value="" style="edgeStyle=orthogonalEdgeStyle;curved=1;rounded=0;orthogonalLoop=1;jettySize=auto;html=1;" edge="1" parent="1" source="wLkOxcurCiOIAry3g33d-13" target="wLkOxcurCiOIAry3g33d-16">
          <mxGeometry relative="1" as="geometry" />
        </mxCell>
        <mxCell id="wLkOxcurCiOIAry3g33d-13" value="多数据源" style="whiteSpace=wrap;html=1;" vertex="1" parent="1">
          <mxGeometry x="370" y="690" width="120" height="60" as="geometry" />
        </mxCell>
        <mxCell id="wLkOxcurCiOIAry3g33d-16" value="1 同比&lt;br&gt;2 环比" style="shape=process;whiteSpace=wrap;html=1;backgroundOutline=1;" vertex="1" parent="1">
          <mxGeometry x="570" y="690" width="120" height="60" as="geometry" />
        </mxCell>
        <mxCell id="wLkOxcurCiOIAry3g33d-23" value="" style="edgeStyle=orthogonalEdgeStyle;curved=1;rounded=0;orthogonalLoop=1;jettySize=auto;html=1;entryX=0.01;entryY=0.1;entryDx=0;entryDy=0;entryPerimeter=0;" edge="1" parent="1" source="wLkOxcurCiOIAry3g33d-18" target="wLkOxcurCiOIAry3g33d-22">
          <mxGeometry relative="1" as="geometry" />
        </mxCell>
        <mxCell id="wLkOxcurCiOIAry3g33d-28" style="edgeStyle=orthogonalEdgeStyle;curved=1;rounded=0;orthogonalLoop=1;jettySize=auto;html=1;" edge="1" parent="1" source="wLkOxcurCiOIAry3g33d-18" target="wLkOxcurCiOIAry3g33d-24">
          <mxGeometry relative="1" as="geometry" />
        </mxCell>
        <mxCell id="wLkOxcurCiOIAry3g33d-18" value="1 异常值" style="shape=process;whiteSpace=wrap;html=1;backgroundOutline=1;" vertex="1" parent="1">
          <mxGeometry x="570" y="780" width="120" height="60" as="geometry" />
        </mxCell>
        <mxCell id="wLkOxcurCiOIAry3g33d-22" value="null 值" style="shape=step;perimeter=stepPerimeter;whiteSpace=wrap;html=1;fixedSize=1;" vertex="1" parent="1">
          <mxGeometry x="780" y="730" width="100" height="40" as="geometry" />
        </mxCell>
        <mxCell id="wLkOxcurCiOIAry3g33d-24" value="空 值" style="shape=step;perimeter=stepPerimeter;whiteSpace=wrap;html=1;fixedSize=1;" vertex="1" parent="1">
          <mxGeometry x="780" y="785" width="100" height="40" as="geometry" />
        </mxCell>
        <mxCell id="wLkOxcurCiOIAry3g33d-25" value="count" style="shape=step;perimeter=stepPerimeter;whiteSpace=wrap;html=1;fixedSize=1;" vertex="1" parent="1">
          <mxGeometry x="790" y="850" width="100" height="40" as="geometry" />
        </mxCell>
        <mxCell id="wLkOxcurCiOIAry3g33d-35" style="edgeStyle=orthogonalEdgeStyle;curved=1;rounded=0;orthogonalLoop=1;jettySize=auto;html=1;entryX=0;entryY=0.5;entryDx=0;entryDy=0;" edge="1" parent="1" source="wLkOxcurCiOIAry3g33d-26" target="wLkOxcurCiOIAry3g33d-30">
          <mxGeometry relative="1" as="geometry" />
        </mxCell>
        <mxCell id="wLkOxcurCiOIAry3g33d-36" style="edgeStyle=orthogonalEdgeStyle;curved=1;rounded=0;orthogonalLoop=1;jettySize=auto;html=1;entryX=0;entryY=0.5;entryDx=0;entryDy=0;" edge="1" parent="1" source="wLkOxcurCiOIAry3g33d-26" target="wLkOxcurCiOIAry3g33d-31">
          <mxGeometry relative="1" as="geometry" />
        </mxCell>
        <mxCell id="wLkOxcurCiOIAry3g33d-37" style="edgeStyle=orthogonalEdgeStyle;curved=1;rounded=0;orthogonalLoop=1;jettySize=auto;html=1;entryX=0;entryY=0.5;entryDx=0;entryDy=0;" edge="1" parent="1" source="wLkOxcurCiOIAry3g33d-26" target="wLkOxcurCiOIAry3g33d-32">
          <mxGeometry relative="1" as="geometry">
            <Array as="points">
              <mxPoint x="740" y="930" />
              <mxPoint x="740" y="1020" />
            </Array>
          </mxGeometry>
        </mxCell>
        <mxCell id="wLkOxcurCiOIAry3g33d-38" style="edgeStyle=orthogonalEdgeStyle;curved=1;rounded=0;orthogonalLoop=1;jettySize=auto;html=1;entryX=0;entryY=0.5;entryDx=0;entryDy=0;" edge="1" parent="1" source="wLkOxcurCiOIAry3g33d-26" target="wLkOxcurCiOIAry3g33d-33">
          <mxGeometry relative="1" as="geometry">
            <Array as="points">
              <mxPoint x="720" y="930" />
              <mxPoint x="720" y="1070" />
            </Array>
          </mxGeometry>
        </mxCell>
        <mxCell id="wLkOxcurCiOIAry3g33d-39" style="edgeStyle=orthogonalEdgeStyle;curved=1;rounded=0;orthogonalLoop=1;jettySize=auto;html=1;entryX=0;entryY=0.5;entryDx=0;entryDy=0;" edge="1" parent="1" source="wLkOxcurCiOIAry3g33d-26" target="wLkOxcurCiOIAry3g33d-25">
          <mxGeometry relative="1" as="geometry">
            <Array as="points">
              <mxPoint x="750" y="930" />
              <mxPoint x="750" y="870" />
            </Array>
          </mxGeometry>
        </mxCell>
        <mxCell id="wLkOxcurCiOIAry3g33d-26" value="1 数量统计" style="shape=process;whiteSpace=wrap;html=1;backgroundOutline=1;" vertex="1" parent="1">
          <mxGeometry x="570" y="900" width="120" height="60" as="geometry" />
        </mxCell>
        <mxCell id="wLkOxcurCiOIAry3g33d-30" value="distict" style="shape=step;perimeter=stepPerimeter;whiteSpace=wrap;html=1;fixedSize=1;" vertex="1" parent="1">
          <mxGeometry x="790" y="900" width="100" height="40" as="geometry" />
        </mxCell>
        <mxCell id="wLkOxcurCiOIAry3g33d-31" value="sum" style="shape=step;perimeter=stepPerimeter;whiteSpace=wrap;html=1;fixedSize=1;" vertex="1" parent="1">
          <mxGeometry x="790" y="950" width="100" height="40" as="geometry" />
        </mxCell>
        <mxCell id="wLkOxcurCiOIAry3g33d-32" value="min" style="shape=step;perimeter=stepPerimeter;whiteSpace=wrap;html=1;fixedSize=1;" vertex="1" parent="1">
          <mxGeometry x="790" y="1000" width="100" height="40" as="geometry" />
        </mxCell>
        <mxCell id="wLkOxcurCiOIAry3g33d-33" value="max" style="shape=step;perimeter=stepPerimeter;whiteSpace=wrap;html=1;fixedSize=1;" vertex="1" parent="1">
          <mxGeometry x="790" y="1050" width="100" height="40" as="geometry" />
        </mxCell>
        <mxCell id="wLkOxcurCiOIAry3g33d-44" style="edgeStyle=orthogonalEdgeStyle;curved=1;rounded=0;orthogonalLoop=1;jettySize=auto;html=1;entryX=0;entryY=0.5;entryDx=0;entryDy=0;" edge="1" parent="1" source="wLkOxcurCiOIAry3g33d-40" target="wLkOxcurCiOIAry3g33d-42">
          <mxGeometry relative="1" as="geometry" />
        </mxCell>
        <mxCell id="wLkOxcurCiOIAry3g33d-45" style="edgeStyle=orthogonalEdgeStyle;curved=1;rounded=0;orthogonalLoop=1;jettySize=auto;html=1;entryX=0;entryY=0.5;entryDx=0;entryDy=0;" edge="1" parent="1" source="wLkOxcurCiOIAry3g33d-40" target="wLkOxcurCiOIAry3g33d-43">
          <mxGeometry relative="1" as="geometry" />
        </mxCell>
        <mxCell id="wLkOxcurCiOIAry3g33d-40" value="阈值" style="whiteSpace=wrap;html=1;" vertex="1" parent="1">
          <mxGeometry x="370" y="555" width="120" height="60" as="geometry" />
        </mxCell>
        <mxCell id="wLkOxcurCiOIAry3g33d-47" style="edgeStyle=orthogonalEdgeStyle;curved=1;rounded=0;orthogonalLoop=1;jettySize=auto;html=1;entryX=0;entryY=0.5;entryDx=0;entryDy=0;" edge="1" parent="1" source="wLkOxcurCiOIAry3g33d-42" target="wLkOxcurCiOIAry3g33d-46">
          <mxGeometry relative="1" as="geometry" />
        </mxCell>
        <mxCell id="wLkOxcurCiOIAry3g33d-42" value="固定阈值" style="shape=process;whiteSpace=wrap;html=1;backgroundOutline=1;" vertex="1" parent="1">
          <mxGeometry x="570" y="510" width="120" height="60" as="geometry" />
        </mxCell>
        <mxCell id="wLkOxcurCiOIAry3g33d-49" style="edgeStyle=orthogonalEdgeStyle;curved=1;rounded=0;orthogonalLoop=1;jettySize=auto;html=1;entryX=0;entryY=0.5;entryDx=0;entryDy=0;" edge="1" parent="1" source="wLkOxcurCiOIAry3g33d-43" target="wLkOxcurCiOIAry3g33d-48">
          <mxGeometry relative="1" as="geometry" />
        </mxCell>
        <mxCell id="wLkOxcurCiOIAry3g33d-43" value="波动阈值" style="shape=process;whiteSpace=wrap;html=1;backgroundOutline=1;" vertex="1" parent="1">
          <mxGeometry x="570" y="590" width="120" height="60" as="geometry" />
        </mxCell>
        <mxCell id="wLkOxcurCiOIAry3g33d-46" value="上下波动" style="shape=step;perimeter=stepPerimeter;whiteSpace=wrap;html=1;fixedSize=1;" vertex="1" parent="1">
          <mxGeometry x="760" y="520" width="100" height="40" as="geometry" />
        </mxCell>
        <mxCell id="wLkOxcurCiOIAry3g33d-48" value="上下波动" style="shape=step;perimeter=stepPerimeter;whiteSpace=wrap;html=1;fixedSize=1;" vertex="1" parent="1">
          <mxGeometry x="760" y="600" width="100" height="40" as="geometry" />
        </mxCell>
        <mxCell id="wLkOxcurCiOIAry3g33d-53" value="" style="edgeStyle=orthogonalEdgeStyle;curved=1;rounded=0;orthogonalLoop=1;jettySize=auto;html=1;" edge="1" parent="1" source="wLkOxcurCiOIAry3g33d-50" target="wLkOxcurCiOIAry3g33d-52">
          <mxGeometry relative="1" as="geometry" />
        </mxCell>
        <mxCell id="wLkOxcurCiOIAry3g33d-50" value="计算" style="ellipse;whiteSpace=wrap;html=1;" vertex="1" parent="1">
          <mxGeometry x="-1170" y="-110" width="120" height="80" as="geometry" />
        </mxCell>
        <mxCell id="wLkOxcurCiOIAry3g33d-55" value="" style="edgeStyle=orthogonalEdgeStyle;curved=1;rounded=0;orthogonalLoop=1;jettySize=auto;html=1;" edge="1" parent="1" source="wLkOxcurCiOIAry3g33d-52" target="wLkOxcurCiOIAry3g33d-54">
          <mxGeometry relative="1" as="geometry" />
        </mxCell>
        <mxCell id="wLkOxcurCiOIAry3g33d-52" value="读取参数配置" style="whiteSpace=wrap;html=1;" vertex="1" parent="1">
          <mxGeometry x="-970" y="-100" width="120" height="60" as="geometry" />
        </mxCell>
        <mxCell id="wLkOxcurCiOIAry3g33d-57" value="" style="edgeStyle=orthogonalEdgeStyle;curved=1;rounded=0;orthogonalLoop=1;jettySize=auto;html=1;" edge="1" parent="1" source="wLkOxcurCiOIAry3g33d-54" target="wLkOxcurCiOIAry3g33d-56">
          <mxGeometry relative="1" as="geometry" />
        </mxCell>
        <mxCell id="wLkOxcurCiOIAry3g33d-84" value="" style="edgeStyle=orthogonalEdgeStyle;curved=1;rounded=0;orthogonalLoop=1;jettySize=auto;html=1;" edge="1" parent="1" source="wLkOxcurCiOIAry3g33d-54" target="wLkOxcurCiOIAry3g33d-83">
          <mxGeometry relative="1" as="geometry" />
        </mxCell>
        <mxCell id="wLkOxcurCiOIAry3g33d-88" value="" style="edgeStyle=orthogonalEdgeStyle;curved=1;rounded=0;orthogonalLoop=1;jettySize=auto;html=1;" edge="1" parent="1" source="wLkOxcurCiOIAry3g33d-54" target="wLkOxcurCiOIAry3g33d-87">
          <mxGeometry relative="1" as="geometry" />
        </mxCell>
        <mxCell id="wLkOxcurCiOIAry3g33d-54" value="构建job" style="whiteSpace=wrap;html=1;" vertex="1" parent="1">
          <mxGeometry x="-770" y="-100" width="120" height="60" as="geometry" />
        </mxCell>
        <mxCell id="wLkOxcurCiOIAry3g33d-59" value="" style="edgeStyle=orthogonalEdgeStyle;curved=1;rounded=0;orthogonalLoop=1;jettySize=auto;html=1;" edge="1" parent="1" source="wLkOxcurCiOIAry3g33d-56" target="wLkOxcurCiOIAry3g33d-58">
          <mxGeometry relative="1" as="geometry" />
        </mxCell>
        <mxCell id="wLkOxcurCiOIAry3g33d-73" value="" style="edgeStyle=orthogonalEdgeStyle;curved=1;rounded=0;orthogonalLoop=1;jettySize=auto;html=1;" edge="1" parent="1" source="wLkOxcurCiOIAry3g33d-56" target="wLkOxcurCiOIAry3g33d-72">
          <mxGeometry relative="1" as="geometry" />
        </mxCell>
        <mxCell id="wLkOxcurCiOIAry3g33d-56" value="执行job" style="whiteSpace=wrap;html=1;" vertex="1" parent="1">
          <mxGeometry x="-570" y="-100" width="120" height="60" as="geometry" />
        </mxCell>
        <mxCell id="wLkOxcurCiOIAry3g33d-65" style="edgeStyle=orthogonalEdgeStyle;curved=1;rounded=0;orthogonalLoop=1;jettySize=auto;html=1;" edge="1" parent="1" source="wLkOxcurCiOIAry3g33d-58" target="wLkOxcurCiOIAry3g33d-62">
          <mxGeometry relative="1" as="geometry" />
        </mxCell>
        <mxCell id="wLkOxcurCiOIAry3g33d-66" style="edgeStyle=orthogonalEdgeStyle;curved=1;rounded=0;orthogonalLoop=1;jettySize=auto;html=1;entryX=0;entryY=0.5;entryDx=0;entryDy=0;" edge="1" parent="1" source="wLkOxcurCiOIAry3g33d-58" target="wLkOxcurCiOIAry3g33d-61">
          <mxGeometry relative="1" as="geometry" />
        </mxCell>
        <mxCell id="wLkOxcurCiOIAry3g33d-67" style="edgeStyle=orthogonalEdgeStyle;curved=1;rounded=0;orthogonalLoop=1;jettySize=auto;html=1;" edge="1" parent="1" source="wLkOxcurCiOIAry3g33d-58" target="wLkOxcurCiOIAry3g33d-64">
          <mxGeometry relative="1" as="geometry" />
        </mxCell>
        <mxCell id="wLkOxcurCiOIAry3g33d-70" style="edgeStyle=orthogonalEdgeStyle;curved=1;rounded=0;orthogonalLoop=1;jettySize=auto;html=1;entryX=0;entryY=0.5;entryDx=0;entryDy=0;" edge="1" parent="1" source="wLkOxcurCiOIAry3g33d-58" target="wLkOxcurCiOIAry3g33d-63">
          <mxGeometry relative="1" as="geometry">
            <Array as="points">
              <mxPoint x="-220" y="-70" />
              <mxPoint x="-220" y="30" />
            </Array>
          </mxGeometry>
        </mxCell>
        <mxCell id="wLkOxcurCiOIAry3g33d-71" style="edgeStyle=orthogonalEdgeStyle;curved=1;rounded=0;orthogonalLoop=1;jettySize=auto;html=1;entryX=0;entryY=0.5;entryDx=0;entryDy=0;" edge="1" parent="1" source="wLkOxcurCiOIAry3g33d-58" target="wLkOxcurCiOIAry3g33d-60">
          <mxGeometry relative="1" as="geometry">
            <Array as="points">
              <mxPoint x="-230" y="-70" />
              <mxPoint x="-230" y="-170" />
            </Array>
          </mxGeometry>
        </mxCell>
        <mxCell id="wLkOxcurCiOIAry3g33d-58" value="结果存储" style="whiteSpace=wrap;html=1;" vertex="1" parent="1">
          <mxGeometry x="-370" y="-100" width="120" height="60" as="geometry" />
        </mxCell>
        <mxCell id="wLkOxcurCiOIAry3g33d-60" value="console" style="shape=step;perimeter=stepPerimeter;whiteSpace=wrap;html=1;fixedSize=1;" vertex="1" parent="1">
          <mxGeometry x="-180" y="-190" width="100" height="40" as="geometry" />
        </mxCell>
        <mxCell id="wLkOxcurCiOIAry3g33d-61" value="hdfs" style="shape=step;perimeter=stepPerimeter;whiteSpace=wrap;html=1;fixedSize=1;" vertex="1" parent="1">
          <mxGeometry x="-180" y="-140" width="100" height="40" as="geometry" />
        </mxCell>
        <mxCell id="wLkOxcurCiOIAry3g33d-62" value="es" style="shape=step;perimeter=stepPerimeter;whiteSpace=wrap;html=1;fixedSize=1;" vertex="1" parent="1">
          <mxGeometry x="-180" y="-90" width="100" height="40" as="geometry" />
        </mxCell>
        <mxCell id="wLkOxcurCiOIAry3g33d-78" style="edgeStyle=orthogonalEdgeStyle;curved=1;rounded=0;orthogonalLoop=1;jettySize=auto;html=1;entryX=0;entryY=0.5;entryDx=0;entryDy=0;" edge="1" parent="1" source="wLkOxcurCiOIAry3g33d-63" target="wLkOxcurCiOIAry3g33d-3">
          <mxGeometry relative="1" as="geometry" />
        </mxCell>
        <mxCell id="wLkOxcurCiOIAry3g33d-79" value="计算结果保存" style="edgeLabel;html=1;align=center;verticalAlign=middle;resizable=0;points=[];" vertex="1" connectable="0" parent="wLkOxcurCiOIAry3g33d-78">
          <mxGeometry x="-0.0605" y="-4" relative="1" as="geometry">
            <mxPoint as="offset" />
          </mxGeometry>
        </mxCell>
        <mxCell id="wLkOxcurCiOIAry3g33d-63" value="custom" style="shape=step;perimeter=stepPerimeter;whiteSpace=wrap;html=1;fixedSize=1;" vertex="1" parent="1">
          <mxGeometry x="-180" y="10" width="100" height="40" as="geometry" />
        </mxCell>
        <mxCell id="wLkOxcurCiOIAry3g33d-64" value="mongodb" style="shape=step;perimeter=stepPerimeter;whiteSpace=wrap;html=1;fixedSize=1;" vertex="1" parent="1">
          <mxGeometry x="-180" y="-40" width="100" height="40" as="geometry" />
        </mxCell>
        <mxCell id="wLkOxcurCiOIAry3g33d-72" value="多个step" style="shape=parallelogram;perimeter=parallelogramPerimeter;whiteSpace=wrap;html=1;fixedSize=1;" vertex="1" parent="1">
          <mxGeometry x="-570" width="120" height="60" as="geometry" />
        </mxCell>
        <mxCell id="wLkOxcurCiOIAry3g33d-77" style="edgeStyle=orthogonalEdgeStyle;curved=1;rounded=0;orthogonalLoop=1;jettySize=auto;html=1;exitX=0.1;exitY=0.6;exitDx=0;exitDy=0;exitPerimeter=0;" edge="1" parent="1" source="wLkOxcurCiOIAry3g33d-82" target="wLkOxcurCiOIAry3g33d-50">
          <mxGeometry relative="1" as="geometry" />
        </mxCell>
        <mxCell id="wLkOxcurCiOIAry3g33d-81" value="启动spark任务" style="edgeLabel;html=1;align=center;verticalAlign=middle;resizable=0;points=[];" vertex="1" connectable="0" parent="wLkOxcurCiOIAry3g33d-77">
          <mxGeometry x="-0.134" y="-94" relative="1" as="geometry">
            <mxPoint as="offset" />
          </mxGeometry>
        </mxCell>
        <mxCell id="wLkOxcurCiOIAry3g33d-82" value="&lt;span&gt;livy&lt;/span&gt;" style="ellipse;shape=cloud;whiteSpace=wrap;html=1;fillColor=#ffe6cc;strokeColor=#d79b00;" vertex="1" parent="1">
          <mxGeometry x="-580" y="330" width="120" height="80" as="geometry" />
        </mxCell>
        <mxCell id="wLkOxcurCiOIAry3g33d-83" value="解析参数构建sql" style="shape=parallelogram;perimeter=parallelogramPerimeter;whiteSpace=wrap;html=1;fixedSize=1;" vertex="1" parent="1">
          <mxGeometry x="-770" width="120" height="60" as="geometry" />
        </mxCell>
        <mxCell id="wLkOxcurCiOIAry3g33d-90" value="" style="edgeStyle=orthogonalEdgeStyle;curved=1;rounded=0;orthogonalLoop=1;jettySize=auto;html=1;entryX=0;entryY=0.5;entryDx=0;entryDy=0;" edge="1" parent="1" source="wLkOxcurCiOIAry3g33d-87" target="wLkOxcurCiOIAry3g33d-92">
          <mxGeometry relative="1" as="geometry">
            <mxPoint x="-610" y="-240" as="targetPoint" />
          </mxGeometry>
        </mxCell>
        <mxCell id="wLkOxcurCiOIAry3g33d-100" style="edgeStyle=orthogonalEdgeStyle;curved=1;rounded=0;orthogonalLoop=1;jettySize=auto;html=1;" edge="1" parent="1" source="wLkOxcurCiOIAry3g33d-87" target="wLkOxcurCiOIAry3g33d-93">
          <mxGeometry relative="1" as="geometry" />
        </mxCell>
        <mxCell id="wLkOxcurCiOIAry3g33d-101" style="edgeStyle=orthogonalEdgeStyle;curved=1;rounded=0;orthogonalLoop=1;jettySize=auto;html=1;entryX=0;entryY=0.5;entryDx=0;entryDy=0;" edge="1" parent="1" source="wLkOxcurCiOIAry3g33d-87" target="wLkOxcurCiOIAry3g33d-91">
          <mxGeometry relative="1" as="geometry" />
        </mxCell>
        <mxCell id="wLkOxcurCiOIAry3g33d-87" value="dslType" style="shape=process;whiteSpace=wrap;html=1;backgroundOutline=1;" vertex="1" parent="1">
          <mxGeometry x="-770" y="-270" width="120" height="60" as="geometry" />
        </mxCell>
        <mxCell id="wLkOxcurCiOIAry3g33d-102" style="edgeStyle=orthogonalEdgeStyle;curved=1;rounded=0;orthogonalLoop=1;jettySize=auto;html=1;entryX=0;entryY=0.5;entryDx=0;entryDy=0;" edge="1" parent="1" source="wLkOxcurCiOIAry3g33d-91" target="wLkOxcurCiOIAry3g33d-94">
          <mxGeometry relative="1" as="geometry" />
        </mxCell>
        <mxCell id="wLkOxcurCiOIAry3g33d-104" style="edgeStyle=orthogonalEdgeStyle;curved=1;rounded=0;orthogonalLoop=1;jettySize=auto;html=1;entryX=0;entryY=0.5;entryDx=0;entryDy=0;" edge="1" parent="1" source="wLkOxcurCiOIAry3g33d-91" target="wLkOxcurCiOIAry3g33d-95">
          <mxGeometry relative="1" as="geometry">
            <Array as="points">
              <mxPoint x="-460" y="-290" />
              <mxPoint x="-460" y="-340" />
            </Array>
          </mxGeometry>
        </mxCell>
        <mxCell id="wLkOxcurCiOIAry3g33d-105" style="edgeStyle=orthogonalEdgeStyle;curved=1;rounded=0;orthogonalLoop=1;jettySize=auto;html=1;entryX=0;entryY=0.5;entryDx=0;entryDy=0;" edge="1" parent="1" source="wLkOxcurCiOIAry3g33d-91" target="wLkOxcurCiOIAry3g33d-97">
          <mxGeometry relative="1" as="geometry">
            <Array as="points">
              <mxPoint x="-460" y="-290" />
              <mxPoint x="-460" y="-240" />
            </Array>
          </mxGeometry>
        </mxCell>
        <mxCell id="wLkOxcurCiOIAry3g33d-106" style="edgeStyle=orthogonalEdgeStyle;curved=1;rounded=0;orthogonalLoop=1;jettySize=auto;html=1;entryX=0;entryY=0.5;entryDx=0;entryDy=0;" edge="1" parent="1" source="wLkOxcurCiOIAry3g33d-91" target="wLkOxcurCiOIAry3g33d-98">
          <mxGeometry relative="1" as="geometry">
            <Array as="points">
              <mxPoint x="-470" y="-290" />
              <mxPoint x="-470" y="-390" />
            </Array>
          </mxGeometry>
        </mxCell>
        <mxCell id="wLkOxcurCiOIAry3g33d-107" style="edgeStyle=orthogonalEdgeStyle;curved=1;rounded=0;orthogonalLoop=1;jettySize=auto;html=1;entryX=0;entryY=0.5;entryDx=0;entryDy=0;" edge="1" parent="1" source="wLkOxcurCiOIAry3g33d-91" target="wLkOxcurCiOIAry3g33d-96">
          <mxGeometry relative="1" as="geometry">
            <Array as="points">
              <mxPoint x="-470" y="-290" />
              <mxPoint x="-470" y="-190" />
            </Array>
          </mxGeometry>
        </mxCell>
        <mxCell id="wLkOxcurCiOIAry3g33d-109" style="edgeStyle=orthogonalEdgeStyle;curved=1;rounded=0;orthogonalLoop=1;jettySize=auto;html=1;entryX=0;entryY=0.5;entryDx=0;entryDy=0;" edge="1" parent="1" source="wLkOxcurCiOIAry3g33d-91" target="wLkOxcurCiOIAry3g33d-108">
          <mxGeometry relative="1" as="geometry">
            <Array as="points">
              <mxPoint x="-490" y="-440" />
            </Array>
          </mxGeometry>
        </mxCell>
        <mxCell id="wLkOxcurCiOIAry3g33d-91" value="GriffinDsl" style="shape=step;perimeter=stepPerimeter;whiteSpace=wrap;html=1;fixedSize=1;" vertex="1" parent="1">
          <mxGeometry x="-590" y="-310" width="100" height="40" as="geometry" />
        </mxCell>
        <mxCell id="wLkOxcurCiOIAry3g33d-92" value="DataFramO" style="shape=step;perimeter=stepPerimeter;whiteSpace=wrap;html=1;fixedSize=1;" vertex="1" parent="1">
          <mxGeometry x="-590" y="-260" width="100" height="40" as="geometry" />
        </mxCell>
        <mxCell id="wLkOxcurCiOIAry3g33d-93" value="SparkSql" style="shape=step;perimeter=stepPerimeter;whiteSpace=wrap;html=1;fixedSize=1;" vertex="1" parent="1">
          <mxGeometry x="-590" y="-210" width="100" height="40" as="geometry" />
        </mxCell>
        <mxCell id="wLkOxcurCiOIAry3g33d-94" value="Uniqueness" style="shape=step;perimeter=stepPerimeter;whiteSpace=wrap;html=1;fixedSize=1;" vertex="1" parent="1">
          <mxGeometry x="-413" y="-310" width="100" height="40" as="geometry" />
        </mxCell>
        <mxCell id="wLkOxcurCiOIAry3g33d-95" value="Profiling" style="shape=step;perimeter=stepPerimeter;whiteSpace=wrap;html=1;fixedSize=1;" vertex="1" parent="1">
          <mxGeometry x="-413" y="-360" width="100" height="40" as="geometry" />
        </mxCell>
        <mxCell id="wLkOxcurCiOIAry3g33d-96" value="Timeliness" style="shape=step;perimeter=stepPerimeter;whiteSpace=wrap;html=1;fixedSize=1;" vertex="1" parent="1">
          <mxGeometry x="-410" y="-210" width="100" height="40" as="geometry" />
        </mxCell>
        <mxCell id="wLkOxcurCiOIAry3g33d-97" value="Distinct" style="shape=step;perimeter=stepPerimeter;whiteSpace=wrap;html=1;fixedSize=1;" vertex="1" parent="1">
          <mxGeometry x="-413" y="-260" width="100" height="40" as="geometry" />
        </mxCell>
        <mxCell id="wLkOxcurCiOIAry3g33d-98" value="Accuracy" style="shape=step;perimeter=stepPerimeter;whiteSpace=wrap;html=1;fixedSize=1;" vertex="1" parent="1">
          <mxGeometry x="-413" y="-410" width="100" height="40" as="geometry" />
        </mxCell>
        <mxCell id="wLkOxcurCiOIAry3g33d-108" value="Complateness" style="shape=step;perimeter=stepPerimeter;whiteSpace=wrap;html=1;fixedSize=1;" vertex="1" parent="1">
          <mxGeometry x="-413" y="-460" width="100" height="40" as="geometry" />
        </mxCell>
      </root>
    </mxGraphModel>
  </diagram>
</mxfile>
